/media/raul/Väline HDD/TTY/rotated/

: 0.0132 - acc: 0.9939 - iou_loss: -0.9490current decayed lr: 0.0056888
1447/1447 [==============================] - 46s 32ms/step - loss: 0.0132 - acc: 0.9939 - iou_loss: -0.9490 - val_loss: 0.0136 - val_acc: 0.9940 - val_iou_loss: -0.9499
Epoch 38/100
1447/1447 [==============================] - ETA: 0s - loss: 0.0128 - acc: 0.9940 - iou_loss: -0.9497current decayed lr: 0.0056027
1447/1447 [==============================] - 46s 32ms/step - loss: 0.0128 - acc: 0.9940 - iou_loss: -0.9497 - val_loss: 0.0135 - val_acc: 0.9938 - val_iou_loss: -0.9495
Epoch 39/100
1447/1447 [==============================] - ETA: 0s - loss: 0.0133 - acc: 0.9939 - iou_loss: -0.9486current decayed lr: 0.0055179
1447/1447 [==============================] - 46s 32ms/step - loss: 0.0133 - acc: 0.9939 - iou_loss: -0.9486 - val_loss: 0.0139 - val_acc: 0.9937 - val_iou_loss: -0.9505
Epoch 40/100
1447/1447 [==============================] - ETA: 0s - loss: 0.0127 - acc: 0.9941 - iou_loss: -0.9504current decayed lr: 0.0054344
1447/1447 [==============================] - 46s 32ms/step - loss: 0.0127 - acc: 0.9941 - iou_loss: -0.9504 - val_loss: 0.0130 - val_acc: 0.9941 - val_iou_loss: -0.9501
Epoch 41/100
1447/1447 [==============================] - ETA: 0s - loss: 0.0129 - acc: 0.9940 - iou_loss: -0.9497current decayed lr: 0.0053522
1447/1447 [==============================] - 46s 32ms/step - loss: 0.0129 - acc: 0.9940 - iou_loss: -0.9497 - val_loss: 0.0141 - val_acc: 0.9937 - val_iou_loss: -0.9492
Epoch 42/100
1447/1447 [==============================] - ETA: 0s - loss: 0.0127 - acc: 0.9941 - iou_loss: -0.9504current decayed lr: 0.0052712
1447/1447 [==============================] - 46s 32ms/step - loss: 0.0127 - acc: 0.9941 - iou_loss: -0.9504 - val_loss: 0.0129 - val_acc: 0.9941 - val_iou_loss: -0.9508
Epoch 43/100
1447/1447 [==============================] - ETA: 0s - loss: 0.0126 - acc: 0.9942 - iou_loss: -0.9509current decayed lr: 0.0051915
1447/1447 [==============================] - 46s 32ms/step - loss: 0.0126 - acc: 0.9942 - iou_loss: -0.9509 - val_loss: 0.0139 - val_acc: 0.9936 - val_iou_loss: -0.9457
Epoch 44/100
1447/1447 [==============================] - ETA: 0s - loss: 0.0128 - acc: 0.9941 - iou_loss: -0.9500current decayed lr: 0.0051129
1447/1447 [==============================] - 46s 32ms/step - loss: 0.0128 - acc: 0.9941 - iou_loss: -0.9500 - val_loss: 0.0131 - val_acc: 0.9941 - val_iou_loss: -0.9519
Epoch 45/100
1447/1447 [==============================] - ETA: 0s - loss: 0.0126 - acc: 0.9941 - iou_loss: -0.9510current decayed lr: 0.0050356
1447/1447 [==============================] - 46s 32ms/step - loss: 0.0126 - acc: 0.9941 - iou_loss: -0.9510 - val_loss: 0.0132 - val_acc: 0.9939 - val_iou_loss: -0.9514
Epoch 46/100
1447/1447 [==============================] - ETA: 0s - loss: 0.0126 - acc: 0.9942 - iou_loss: -0.9505current decayed lr: 0.0049594
1447/1447 [==============================] - 46s 32ms/step - loss: 0.0126 - acc: 0.9942 - iou_loss: -0.9505 - val_loss: 0.0128 - val_acc: 0.9942 - val_iou_loss: -0.9535
Epoch 47/100
1447/1447 [==============================] - ETA: 0s - loss: 0.0124 - acc: 0.9942 - iou_loss: -0.9512current decayed lr: 0.0048844
1447/1447 [==============================] - 46s 32ms/step - loss: 0.0124 - acc: 0.9942 - iou_loss: -0.9512 - val_loss: 0.0126 - val_acc: 0.9942 - val_iou_loss: -0.9532
Epoch 48/100
1447/1447 [==============================] - ETA: 0s - loss: 0.0127 - acc: 0.9941 - iou_loss: -0.9507current decayed lr: 0.0048105
1447/1447 [==============================] - 46s 32ms/step - loss: 0.0127 - acc: 0.9941 - iou_loss: -0.9507 - val_loss: 0.0129 - val_acc: 0.9940 - val_iou_loss: -0.9523
Epoch 49/100
1447/1447 [==============================] - ETA: 0s - loss: 0.0122 - acc: 0.9942 - iou_loss: -0.9516current decayed lr: 0.0047377
1447/1447 [==============================] - 46s 32ms/step - loss: 0.0122 - acc: 0.9942 - iou_loss: -0.9516 - val_loss: 0.0127 - val_acc: 0.9942 - val_iou_loss: -0.9523
Epoch 50/100
1447/1447 [==============================] - ETA: 0s - loss: 0.0125 - acc: 0.9942 - iou_loss: -0.9511current decayed lr: 0.0046660
1447/1447 [==============================] - 46s 32ms/step - loss: 0.0125 - acc: 0.9942 - iou_loss: -0.9511 - val_loss: 0.0150 - val_acc: 0.9935 - val_iou_loss: -0.9467
Epoch 51/100
1447/1447 [==============================] - ETA: 0s - loss: 0.0124 - acc: 0.9942 - iou_loss: -0.9515current decayed lr: 0.0045954
1447/1447 [==============================] - 46s 32ms/step - loss: 0.0124 - acc: 0.9942 - iou_loss: -0.9515 - val_loss: 0.0126 - val_acc: 0.9943 - val_iou_loss: -0.9520
Epoch 52/100
1447/1447 [==============================] - ETA: 0s - loss: 0.0117 - acc: 0.9944 - iou_loss: -0.9535current decayed lr: 0.0045259
1447/1447 [==============================] - 46s 32ms/step - loss: 0.0117 - acc: 0.9944 - iou_loss: -0.9535 - val_loss: 0.0128 - val_acc: 0.9941 - val_iou_loss: -0.9520
Epoch 53/100
1447/1447 [==============================] - ETA: 0s - loss: 0.0121 - acc: 0.9943 - iou_loss: -0.9526current decayed lr: 0.0044574
1447/1447 [==============================] - 46s 32ms/step - loss: 0.0121 - acc: 0.9943 - iou_loss: -0.9526 - val_loss: 0.0135 - val_acc: 0.9940 - val_iou_loss: -0.9507
Epoch 54/100
1447/1447 [==============================] - ETA: 0s - loss: 0.0121 - acc: 0.9943 - iou_loss: -0.9523current decayed lr: 0.0043900
1447/1447 [==============================] - 46s 32ms/step - loss: 0.0121 - acc: 0.9943 - iou_loss: -0.9523 - val_loss: 0.0123 - val_acc: 0.9944 - val_iou_loss: -0.9536
Epoch 55/100
1447/1447 [==============================] - ETA: 0s - loss: 0.0121 - acc: 0.9943 - iou_loss: -0.9522current decayed lr: 0.0043235
1447/1447 [==============================] - 46s 32ms/step - loss: 0.0121 - acc: 0.9943 - iou_loss: -0.9522 - val_loss: 0.0128 - val_acc: 0.9941 - val_iou_loss: -0.9518
Epoch 56/100
1447/1447 [==============================] - ETA: 0s - loss: 0.0117 - acc: 0.9945 - iou_loss: -0.9535current decayed lr: 0.0042581
1447/1447 [==============================] - 46s 32ms/step - loss: 0.0117 - acc: 0.9945 - iou_loss: -0.9535 - val_loss: 0.0126 - val_acc: 0.9942 - val_iou_loss: -0.9534
Epoch 57/100
1447/1447 [==============================] - ETA: 0s - loss: 0.0115 - acc: 0.9945 - iou_loss: -0.9541current decayed lr: 0.0041937
1447/1447 [==============================] - 46s 32ms/step - loss: 0.0115 - acc: 0.9945 - iou_loss: -0.9541 - val_loss: 0.0126 - val_acc: 0.9942 - val_iou_loss: -0.9541
Epoch 58/100
1447/1447 [==============================] - ETA: 0s - loss: 0.0117 - acc: 0.9944 - iou_loss: -0.9540current decayed lr: 0.0041302
1447/1447 [==============================] - 46s 32ms/step - loss: 0.0117 - acc: 0.9944 - iou_loss: -0.9540 - val_loss: 0.0131 - val_acc: 0.9941 - val_iou_loss: -0.9527
Epoch 59/100
1447/1447 [==============================] - ETA: 0s - loss: 0.0116 - acc: 0.9945 - iou_loss: -0.9540current decayed lr: 0.0040678
1447/1447 [==============================] - 46s 32ms/step - loss: 0.0116 - acc: 0.9945 - iou_loss: -0.9540 - val_loss: 0.0123 - val_acc: 0.9944 - val_iou_loss: -0.9540
Epoch 60/100
1447/1447 [==============================] - ETA: 0s - loss: 0.0117 - acc: 0.9945 - iou_loss: -0.9537current decayed lr: 0.0040062
1447/1447 [==============================] - 46s 32ms/step - loss: 0.0117 - acc: 0.9945 - iou_loss: -0.9537 - val_loss: 0.0127 - val_acc: 0.9942 - val_iou_loss: -0.9547
Epoch 61/100
1447/1447 [==============================] - ETA: 0s - loss: 0.0121 - acc: 0.9943 - iou_loss: -0.9525current decayed lr: 0.0039456
1447/1447 [==============================] - 46s 32ms/step - loss: 0.0121 - acc: 0.9943 - iou_loss: -0.9525 - val_loss: 0.0127 - val_acc: 0.9942 - val_iou_loss: -0.9523
Epoch 62/100
1447/1447 [==============================] - ETA: 0s - loss: 0.0116 - acc: 0.9944 - iou_loss: -0.9542current decayed lr: 0.0038859
1447/1447 [==============================] - 46s 32ms/step - loss: 0.0116 - acc: 0.9944 - iou_loss: -0.9542 - val_loss: 0.0134 - val_acc: 0.9939 - val_iou_loss: -0.9528
Epoch 63/100
1447/1447 [==============================] - ETA: 0s - loss: 0.0115 - acc: 0.9945 - iou_loss: -0.9539current decayed lr: 0.0038271
1447/1447 [==============================] - 46s 32ms/step - loss: 0.0115 - acc: 0.9945 - iou_loss: -0.9539 - val_loss: 0.0129 - val_acc: 0.9943 - val_iou_loss: -0.9538
Epoch 64/100
1447/1447 [==============================] - ETA: 0s - loss: 0.0114 - acc: 0.9945 - iou_loss: -0.9538current decayed lr: 0.0037692
1447/1447 [==============================] - 46s 32ms/step - loss: 0.0114 - acc: 0.9945 - iou_loss: -0.9538 - val_loss: 0.0128 - val_acc: 0.9941 - val_iou_loss: -0.9536
Epoch 65/100
1447/1447 [==============================] - ETA: 0s - loss: 0.0111 - acc: 0.9946 - iou_loss: -0.9552current decayed lr: 0.0037122
1447/1447 [==============================] - 46s 32ms/step - loss: 0.0111 - acc: 0.9946 - iou_loss: -0.9552 - val_loss: 0.0129 - val_acc: 0.9941 - val_iou_loss: -0.9520
Epoch 66/100
1447/1447 [==============================] - ETA: 0s - loss: 0.0114 - acc: 0.9945 - iou_loss: -0.9542current decayed lr: 0.0036560
1447/1447 [==============================] - 46s 32ms/step - loss: 0.0114 - acc: 0.9945 - iou_loss: -0.9542 - val_loss: 0.0126 - val_acc: 0.9943 - val_iou_loss: -0.9531
Epoch 67/100
1447/1447 [==============================] - ETA: 0s - loss: 0.0110 - acc: 0.9947 - iou_loss: -0.9558current decayed lr: 0.0036007
1447/1447 [==============================] - 46s 32ms/step - loss: 0.0110 - acc: 0.9947 - iou_loss: -0.9558 - val_loss: 0.0121 - val_acc: 0.9944 - val_iou_loss: -0.9542
Epoch 68/100
1447/1447 [==============================] - ETA: 0s - loss: 0.0110 - acc: 0.9947 - iou_loss: -0.9555current decayed lr: 0.0035462
1447/1447 [==============================] - 46s 32ms/step - loss: 0.0110 - acc: 0.9947 - iou_loss: -0.9555 - val_loss: 0.0122 - val_acc: 0.9944 - val_iou_loss: -0.9556
Epoch 69/100
1447/1447 [==============================] - ETA: 0s - loss: 0.0114 - acc: 0.9945 - iou_loss: -0.9548current decayed lr: 0.0034926
1447/1447 [==============================] - 46s 32ms/step - loss: 0.0114 - acc: 0.9945 - iou_loss: -0.9548 - val_loss: 0.0123 - val_acc: 0.9943 - val_iou_loss: -0.9548
Epoch 70/100
1447/1447 [==============================] - ETA: 0s - loss: 0.0110 - acc: 0.9947 - iou_loss: -0.9561current decayed lr: 0.0034397
1447/1447 [==============================] - 46s 32ms/step - loss: 0.0110 - acc: 0.9947 - iou_loss: -0.9561 - val_loss: 0.0124 - val_acc: 0.9943 - val_iou_loss: -0.9545
Epoch 71/100
1447/1447 [==============================] - ETA: 0s - loss: 0.0111 - acc: 0.9946 - iou_loss: -0.9557current decayed lr: 0.0033877
1447/1447 [==============================] - 46s 32ms/step - loss: 0.0111 - acc: 0.9946 - iou_loss: -0.9557 - val_loss: 0.0122 - val_acc: 0.9944 - val_iou_loss: -0.9557
Epoch 72/100
1447/1447 [==============================] - ETA: 0s - loss: 0.0114 - acc: 0.9946 - iou_loss: -0.9552current decayed lr: 0.0033364
1447/1447 [==============================] - 46s 32ms/step - loss: 0.0114 - acc: 0.9946 - iou_loss: -0.9552 - val_loss: 0.0120 - val_acc: 0.9944 - val_iou_loss: -0.9534
Epoch 73/100
1447/1447 [==============================] - ETA: 0s - loss: 0.0111 - acc: 0.9946 - iou_loss: -0.9549current decayed lr: 0.0032859
1447/1447 [==============================] - 46s 32ms/step - loss: 0.0111 - acc: 0.9946 - iou_loss: -0.9549 - val_loss: 0.0121 - val_acc: 0.9944 - val_iou_loss: -0.9555
Epoch 74/100
1447/1447 [==============================] - ETA: 0s - loss: 0.0115 - acc: 0.9945 - iou_loss: -0.9545current decayed lr: 0.0032362
1447/1447 [==============================] - 46s 32ms/step - loss: 0.0115 - acc: 0.9945 - iou_loss: -0.9545 - val_loss: 0.0123 - val_acc: 0.9944 - val_iou_loss: -0.9556
Epoch 75/100
1447/1447 [==============================] - ETA: 0s - loss: 0.0112 - acc: 0.9946 - iou_loss: -0.9555current decayed lr: 0.0031873
1447/1447 [==============================] - 46s 32ms/step - loss: 0.0112 - acc: 0.9946 - iou_loss: -0.9555 - val_loss: 0.0123 - val_acc: 0.9943 - val_iou_loss: -0.9549
Epoch 76/100
1447/1447 [==============================] - ETA: 0s - loss: 0.0112 - acc: 0.9946 - iou_loss: -0.9555current decayed lr: 0.0031390
1447/1447 [==============================] - 46s 32ms/step - loss: 0.0112 - acc: 0.9946 - iou_loss: -0.9555 - val_loss: 0.0127 - val_acc: 0.9941 - val_iou_loss: -0.9534
Epoch 77/100
1447/1447 [==============================] - ETA: 0s - loss: 0.0113 - acc: 0.9945 - iou_loss: -0.9551current decayed lr: 0.0030915
1447/1447 [==============================] - 46s 32ms/step - loss: 0.0113 - acc: 0.9945 - iou_loss: -0.9551 - val_loss: 0.0122 - val_acc: 0.9943 - val_iou_loss: -0.9550
Epoch 78/100
1447/1447 [==============================] - ETA: 0s - loss: 0.0110 - acc: 0.9947 - iou_loss: -0.9558current decayed lr: 0.0030448
1447/1447 [==============================] - 46s 32ms/step - loss: 0.0110 - acc: 0.9947 - iou_loss: -0.9558 - val_loss: 0.0122 - val_acc: 0.9945 - val_iou_loss: -0.9561
Epoch 79/100
1447/1447 [==============================] - ETA: 0s - loss: 0.0112 - acc: 0.9946 - iou_loss: -0.9552current decayed lr: 0.0029987
1447/1447 [==============================] - 46s 32ms/step - loss: 0.0112 - acc: 0.9946 - iou_loss: -0.9552 - val_loss: 0.0124 - val_acc: 0.9944 - val_iou_loss: -0.9557
Epoch 80/100
1447/1447 [==============================] - ETA: 0s - loss: 0.0108 - acc: 0.9947 - iou_loss: -0.9563current decayed lr: 0.0029533
1447/1447 [==============================] - 46s 32ms/step - loss: 0.0108 - acc: 0.9947 - iou_loss: -0.9563 - val_loss: 0.0121 - val_acc: 0.9944 - val_iou_loss: -0.9553
Epoch 81/100
1447/1447 [==============================] - ETA: 0s - loss: 0.0108 - acc: 0.9947 - iou_loss: -0.9566current decayed lr: 0.0029086
1447/1447 [==============================] - 46s 32ms/step - loss: 0.0108 - acc: 0.9947 - iou_loss: -0.9566 - val_loss: 0.0121 - val_acc: 0.9944 - val_iou_loss: -0.9552
Epoch 82/100
1447/1447 [==============================] - ETA: 0s - loss: 0.0111 - acc: 0.9946 - iou_loss: -0.9557current decayed lr: 0.0028646
1447/1447 [==============================] - 46s 32ms/step - loss: 0.0111 - acc: 0.9946 - iou_loss: -0.9557 - val_loss: 0.0122 - val_acc: 0.9945 - val_iou_loss: -0.9561
Epoch 83/100
1447/1447 [==============================] - ETA: 0s - loss: 0.0109 - acc: 0.9947 - iou_loss: -0.9566current decayed lr: 0.0028213
1447/1447 [==============================] - 46s 32ms/step - loss: 0.0109 - acc: 0.9947 - iou_loss: -0.9566 - val_loss: 0.0121 - val_acc: 0.9944 - val_iou_loss: -0.9557
Epoch 84/100
1447/1447 [==============================] - ETA: 0s - loss: 0.0105 - acc: 0.9948 - iou_loss: -0.9575current decayed lr: 0.0027786
1447/1447 [==============================] - 46s 32ms/step - loss: 0.0105 - acc: 0.9948 - iou_loss: -0.9575 - val_loss: 0.0124 - val_acc: 0.9944 - val_iou_loss: -0.9558
Epoch 85/100
1447/1447 [==============================] - ETA: 0s - loss: 0.0108 - acc: 0.9948 - iou_loss: -0.9567current decayed lr: 0.0027366
1447/1447 [==============================] - 46s 32ms/step - loss: 0.0108 - acc: 0.9948 - iou_loss: -0.9567 - val_loss: 0.0123 - val_acc: 0.9943 - val_iou_loss: -0.9559
Epoch 86/100
1447/1447 [==============================] - ETA: 0s - loss: 0.0110 - acc: 0.9947 - iou_loss: -0.9565current decayed lr: 0.0026952
1447/1447 [==============================] - 46s 32ms/step - loss: 0.0110 - acc: 0.9947 - iou_loss: -0.9565 - val_loss: 0.0120 - val_acc: 0.9944 - val_iou_loss: -0.9556
Epoch 87/100
1447/1447 [==============================] - ETA: 0s - loss: 0.0108 - acc: 0.9947 - iou_loss: -0.9560current decayed lr: 0.0026544
1447/1447 [==============================] - 46s 32ms/step - loss: 0.0108 - acc: 0.9947 - iou_loss: -0.9560 - val_loss: 0.0121 - val_acc: 0.9944 - val_iou_loss: -0.9568
Epoch 88/100
1447/1447 [==============================] - ETA: 0s - loss: 0.0107 - acc: 0.9948 - iou_loss: -0.9567current decayed lr: 0.0026142
1447/1447 [==============================] - 46s 32ms/step - loss: 0.0107 - acc: 0.9948 - iou_loss: -0.9567 - val_loss: 0.0119 - val_acc: 0.9945 - val_iou_loss: -0.9559
Epoch 89/100
1447/1447 [==============================] - ETA: 0s - loss: 0.0109 - acc: 0.9947 - iou_loss: -0.9567current decayed lr: 0.0025747
1447/1447 [==============================] - 46s 32ms/step - loss: 0.0109 - acc: 0.9947 - iou_loss: -0.9567 - val_loss: 0.0124 - val_acc: 0.9943 - val_iou_loss: -0.9560
Epoch 90/100
1447/1447 [==============================] - ETA: 0s - loss: 0.0108 - acc: 0.9947 - iou_loss: -0.9568current decayed lr: 0.0025357
1447/1447 [==============================] - 46s 32ms/step - loss: 0.0108 - acc: 0.9947 - iou_loss: -0.9568 - val_loss: 0.0121 - val_acc: 0.9945 - val_iou_loss: -0.9569
Epoch 91/100
1447/1447 [==============================] - ETA: 0s - loss: 0.0107 - acc: 0.9947 - iou_loss: -0.9568current decayed lr: 0.0024973
1447/1447 [==============================] - 46s 32ms/step - loss: 0.0107 - acc: 0.9947 - iou_loss: -0.9568 - val_loss: 0.0124 - val_acc: 0.9944 - val_iou_loss: -0.9566
Epoch 92/100
1447/1447 [==============================] - ETA: 0s - loss: 0.0109 - acc: 0.9947 - iou_loss: -0.9566current decayed lr: 0.0024596
1447/1447 [==============================] - 46s 32ms/step - loss: 0.0109 - acc: 0.9947 - iou_loss: -0.9566 - val_loss: 0.0120 - val_acc: 0.9945 - val_iou_loss: -0.9562
Epoch 93/100
1447/1447 [==============================] - ETA: 0s - loss: 0.0107 - acc: 0.9948 - iou_loss: -0.9570current decayed lr: 0.0024223
1447/1447 [==============================] - 46s 32ms/step - loss: 0.0107 - acc: 0.9948 - iou_loss: -0.9570 - val_loss: 0.0123 - val_acc: 0.9943 - val_iou_loss: -0.9548
Epoch 94/100
1447/1447 [==============================] - ETA: 0s - loss: 0.0104 - acc: 0.9949 - iou_loss: -0.9574current decayed lr: 0.0023857
1447/1447 [==============================] - 46s 32ms/step - loss: 0.0104 - acc: 0.9949 - iou_loss: -0.9574 - val_loss: 0.0122 - val_acc: 0.9944 - val_iou_loss: -0.9554
Epoch 95/100
1447/1447 [==============================] - ETA: 0s - loss: 0.0107 - acc: 0.9948 - iou_loss: -0.9572current decayed lr: 0.0023496
1447/1447 [==============================] - 46s 32ms/step - loss: 0.0107 - acc: 0.9948 - iou_loss: -0.9572 - val_loss: 0.0123 - val_acc: 0.9944 - val_iou_loss: -0.9557
Epoch 96/100
1447/1447 [==============================] - ETA: 0s - loss: 0.0106 - acc: 0.9948 - iou_loss: -0.9573current decayed lr: 0.0023141
1447/1447 [==============================] - 46s 32ms/step - loss: 0.0106 - acc: 0.9948 - iou_loss: -0.9573 - val_loss: 0.0122 - val_acc: 0.9944 - val_iou_loss: -0.9565
Epoch 97/100
1447/1447 [==============================] - ETA: 0s - loss: 0.0103 - acc: 0.9949 - iou_loss: -0.9582current decayed lr: 0.0022790
1447/1447 [==============================] - 46s 32ms/step - loss: 0.0103 - acc: 0.9949 - iou_loss: -0.9582 - val_loss: 0.0122 - val_acc: 0.9944 - val_iou_loss: -0.9565
Epoch 98/100
1447/1447 [==============================] - ETA: 0s - loss: 0.0101 - acc: 0.9950 - iou_loss: -0.9584current decayed lr: 0.0022446
1447/1447 [==============================] - 46s 32ms/step - loss: 0.0101 - acc: 0.9950 - iou_loss: -0.9584 - val_loss: 0.0122 - val_acc: 0.9945 - val_iou_loss: -0.9568
Epoch 99/100
1447/1447 [==============================] - ETA: 0s - loss: 0.0105 - acc: 0.9949 - iou_loss: -0.9578current decayed lr: 0.0022106
1447/1447 [==============================] - 46s 32ms/step - loss: 0.0105 - acc: 0.9949 - iou_loss: -0.9578 - val_loss: 0.0124 - val_acc: 0.9943 - val_iou_loss: -0.9564
Epoch 100/100
1447/1447 [==============================] - ETA: 0s - loss: 0.0104 - acc: 0.9949 - iou_loss: -0.9578current decayed lr: 0.0021772
1447/1447 [==============================] - 46s 32ms/step - loss: 0.0104 - acc: 0.9949 - iou_loss: -0.9578 - val_loss: 0.0124 - val_acc: 0.9944 - val_iou_loss: -0.9567
Training end time: 2020.12.25 11:34:56