epoch,acc,iou_loss,loss,val_acc,val_iou_loss,val_loss
0,0.86386395,-0.07056723,0.5662856449683508,0.9064219,-0.079241976,0.30962827801704407
1,0.90442526,-0.1207923,0.29129140254329233,0.7676778,-0.15091552,0.2825137674808502
2,0.9054362,-0.22134191,0.2300464225312074,0.68866587,-0.1055871,0.4265792965888977
3,0.9190504,-0.2293713,0.21572774310003628,0.8976403,-0.1691067,0.24715863168239594
4,0.9361406,-0.30412832,0.14752165724833807,0.7066725,-0.1670975,0.2919844090938568
